^C:\USERS\AMAZONJ\DOCUMENTS\NEUROSIMV3\AVIGENERATOR.CPP
/c /ZI /nologo /W3 /WX- /Od /Oy- /D _UNICODE /D UNICODE /Gm /EHsc /RTC1 /MDd /GS /fp:precise /Zc:wchar_t /Zc:forScope /Fo"DEBUG\\" /Fd"DEBUG\VC110.PDB" /Gd /TP /analyze- C:\USERS\AMAZONJ\DOCUMENTS\NEUROSIMV3\AVIGENERATOR.CPP
^C:\USERS\AMAZONJ\DOCUMENTS\NEUROSIMV3\NEUROSIM.CPP
/c /ZI /nologo /W3 /WX- /Od /Oy- /D _UNICODE /D UNICODE /Gm /EHsc /RTC1 /MDd /GS /fp:precise /Zc:wchar_t /Zc:forScope /Fo"DEBUG\\" /Fd"DEBUG\VC110.PDB" /Gd /TP /analyze- C:\USERS\AMAZONJ\DOCUMENTS\NEUROSIMV3\NEUROSIM.CPP
^C:\USERS\AMAZONJ\DOCUMENTS\NEUROSIMV3\PICOENGINE.CPP
/c /ZI /nologo /W3 /WX- /Od /Oy- /D _UNICODE /D UNICODE /Gm /EHsc /RTC1 /MDd /GS /fp:precise /Zc:wchar_t /Zc:forScope /Fo"DEBUG\\" /Fd"DEBUG\VC110.PDB" /Gd /TP /analyze- C:\USERS\AMAZONJ\DOCUMENTS\NEUROSIMV3\PICOENGINE.CPP
^C:\USERS\AMAZONJ\DOCUMENTS\NEUROSIMV3\PICOINPUT.CPP
/c /ZI /nologo /W3 /WX- /Od /Oy- /D _UNICODE /D UNICODE /Gm /EHsc /RTC1 /MDd /GS /fp:precise /Zc:wchar_t /Zc:forScope /Fo"DEBUG\\" /Fd"DEBUG\VC110.PDB" /Gd /TP /analyze- C:\USERS\AMAZONJ\DOCUMENTS\NEUROSIMV3\PICOINPUT.CPP
^C:\USERS\AMAZONJ\DOCUMENTS\NEUROSIMV3\PICOMAT.CPP
/c /ZI /nologo /W3 /WX- /Od /Oy- /D _UNICODE /D UNICODE /Gm /EHsc /RTC1 /MDd /GS /fp:precise /Zc:wchar_t /Zc:forScope /Fo"DEBUG\\" /Fd"DEBUG\VC110.PDB" /Gd /TP /analyze- C:\USERS\AMAZONJ\DOCUMENTS\NEUROSIMV3\PICOMAT.CPP
^C:\USERS\AMAZONJ\DOCUMENTS\NEUROSIMV3\PICORENDERER.CPP
/c /ZI /nologo /W3 /WX- /Od /Oy- /D _UNICODE /D UNICODE /Gm /EHsc /RTC1 /MDd /GS /fp:precise /Zc:wchar_t /Zc:forScope /Fo"DEBUG\\" /Fd"DEBUG\VC110.PDB" /Gd /TP /analyze- C:\USERS\AMAZONJ\DOCUMENTS\NEUROSIMV3\PICORENDERER.CPP
^C:\USERS\AMAZONJ\DOCUMENTS\NEUROSIMV3\PICOSIMULATION.CPP
/c /ZI /nologo /W3 /WX- /Od /Oy- /D _UNICODE /D UNICODE /Gm /EHsc /RTC1 /MDd /GS /fp:precise /Zc:wchar_t /Zc:forScope /Fo"DEBUG\\" /Fd"DEBUG\VC110.PDB" /Gd /TP /analyze- C:\USERS\AMAZONJ\DOCUMENTS\NEUROSIMV3\PICOSIMULATION.CPP
^C:\USERS\AMAZONJ\DOCUMENTS\NEUROSIMV3\PICOTIMER.CPP
/c /ZI /nologo /W3 /WX- /Od /Oy- /D _UNICODE /D UNICODE /Gm /EHsc /RTC1 /MDd /GS /fp:precise /Zc:wchar_t /Zc:forScope /Fo"DEBUG\\" /Fd"DEBUG\VC110.PDB" /Gd /TP /analyze- C:\USERS\AMAZONJ\DOCUMENTS\NEUROSIMV3\PICOTIMER.CPP
^C:\USERS\AMAZONJ\DOCUMENTS\NEUROSIMV3\PICOVEC.CPP
/c /ZI /nologo /W3 /WX- /Od /Oy- /D _UNICODE /D UNICODE /Gm /EHsc /RTC1 /MDd /GS /fp:precise /Zc:wchar_t /Zc:forScope /Fo"DEBUG\\" /Fd"DEBUG\VC110.PDB" /Gd /TP /analyze- C:\USERS\AMAZONJ\DOCUMENTS\NEUROSIMV3\PICOVEC.CPP
^C:\USERS\AMAZONJ\DOCUMENTS\NEUROSIMV3\SOURCE.CPP
/c /ZI /nologo /W3 /WX- /Od /Oy- /D _UNICODE /D UNICODE /Gm /EHsc /RTC1 /MDd /GS /fp:precise /Zc:wchar_t /Zc:forScope /Fo"DEBUG\\" /Fd"DEBUG\VC110.PDB" /Gd /TP /analyze- C:\USERS\AMAZONJ\DOCUMENTS\NEUROSIMV3\SOURCE.CPP
