^C:\USERS\AMAZONJ\DOCUMENTS\NEUROSIMV3\RELEASE\AVIGENERATOR.OBJ|C:\USERS\AMAZONJ\DOCUMENTS\NEUROSIMV3\RELEASE\NEUROSIM.OBJ|C:\USERS\AMAZONJ\DOCUMENTS\NEUROSIMV3\RELEASE\PICOENGINE.OBJ|C:\USERS\AMAZONJ\DOCUMENTS\NEUROSIMV3\RELEASE\PICOINPUT.OBJ|C:\USERS\AMAZONJ\DOCUMENTS\NEUROSIMV3\RELEASE\PICOMAT.OBJ|C:\USERS\AMAZONJ\DOCUMENTS\NEUROSIMV3\RELEASE\PICORENDERER.OBJ|C:\USERS\AMAZONJ\DOCUMENTS\NEUROSIMV3\RELEASE\PICOSIMULATION.OBJ|C:\USERS\AMAZONJ\DOCUMENTS\NEUROSIMV3\RELEASE\PICOTIMER.OBJ|C:\USERS\AMAZONJ\DOCUMENTS\NEUROSIMV3\RELEASE\PICOVEC.OBJ|C:\USERS\AMAZONJ\DOCUMENTS\NEUROSIMV3\RELEASE\SOURCE.OBJ
C:\USERS\AMAZONJ\DOCUMENTS\NEUROSIMV3\RELEASE\NEUROSIMV3.EXE
C:\USERS\AMAZONJ\DOCUMENTS\NEUROSIMV3\RELEASE\NEUROSIMV3.PDB
